<svg width="15" height="12" viewBox="0 0 15 12" fill="none" xmlns="http://www.w3.org/2000/svg">
<path d="M5.25091 8.79999L13.3384 0.712495C13.5059 0.546298 13.7299 0.449376 13.9657 0.441072C14.2016 0.432768 14.4318 0.513692 14.6106 0.667695C14.7894 0.821697 14.9035 1.03745 14.9302 1.2719C14.9569 1.50634 14.8942 1.74223 14.7547 1.9325L14.6634 2.03749L5.91341 10.7875C5.75467 10.9463 5.54423 11.0428 5.32035 11.0595C5.09646 11.0763 4.874 11.0121 4.69341 10.8787L4.58841 10.7875L0.83841 7.03749C0.672214 6.86999 0.575292 6.64598 0.566988 6.41017C0.558683 6.17436 0.639608 5.94408 0.79361 5.7653C0.947613 5.58653 1.16337 5.4724 1.39781 5.4457C1.63226 5.419 1.86815 5.48168 2.05841 5.62124L2.16341 5.71249L5.25091 8.79999Z" fill="#08A651"/>
</svg>
