<svg width="22" height="23" viewBox="0 0 22 23" fill="none" xmlns="http://www.w3.org/2000/svg">
<path d="M0.0015709 1.36535C0.0015709 1.15701 0.0843295 0.957205 0.231641 0.809886C0.378952 0.662566 0.578748 0.579803 0.787077 0.579803H1.47518C2.61731 0.579803 3.27399 1.32293 3.65418 2.06449C3.91339 2.57196 4.10034 3.19097 4.25587 3.72829H20.4295C20.6722 3.72836 20.9116 3.78469 21.129 3.89285C21.3463 4.00102 21.5356 4.15807 21.682 4.35169C21.8284 4.54532 21.928 4.77024 21.9729 5.00881C22.0178 5.24739 22.0068 5.49312 21.9408 5.72673L19.5905 14.0143C19.4036 14.6718 19.0073 15.2504 18.4619 15.6624C17.9164 16.0743 17.2514 16.2972 16.5679 16.2971H8.58873C7.89949 16.2973 7.22929 16.0709 6.68139 15.6527C6.13349 15.2345 5.73829 14.6478 5.55667 13.9829L4.54808 10.2829C4.5423 10.2663 4.53706 10.2496 4.53237 10.2326L2.91266 4.73851L2.75556 4.20905C2.59846 3.66545 2.46021 3.18469 2.25283 2.78092C2.00304 2.29387 1.77367 2.15248 1.47361 2.15248H0.785506C0.577177 2.15248 0.37738 2.06971 0.230069 1.92239C0.0827583 1.77507 0 1.57527 0 1.36692L0.0015709 1.36535ZM6.04683 9.80845L7.0727 13.5728C7.16365 13.9051 7.36132 14.1983 7.63525 14.4073C7.90919 14.6162 8.24421 14.7293 8.58873 14.7291H16.5695C16.9111 14.7288 17.2433 14.6171 17.5157 14.411C17.7881 14.2049 17.986 13.9156 18.0792 13.5869L20.4295 5.29939H4.71932L6.04683 9.80688V9.80845Z" fill="#fff"/>
<path d="M11.004 20.224C11.004 20.8488 10.7557 21.448 10.3138 21.8898C9.87187 22.3316 9.27249 22.5798 8.64751 22.5798C8.02253 22.5798 7.42314 22.3316 6.98122 21.8898C6.53929 21.448 6.29102 20.8488 6.29102 20.224C6.29102 19.5992 6.53929 19 6.98122 18.5582C7.42314 18.1164 8.02253 17.8682 8.64751 17.8682C9.27249 17.8682 9.87187 18.1164 10.3138 18.5582C10.7557 19 11.004 19.5992 11.004 20.224ZM9.43301 20.224C9.43301 20.0157 9.35025 19.816 9.20294 19.6687C9.05563 19.5215 8.85584 19.4387 8.64751 19.4387C8.43918 19.4387 8.23939 19.5215 8.09208 19.6687C7.94477 19.816 7.86201 20.0157 7.86201 20.224C7.86201 20.4323 7.94477 20.632 8.09208 20.7793C8.23939 20.9265 8.43918 21.0093 8.64751 21.0093C8.85584 21.0093 9.05563 20.9265 9.20294 20.7793C9.35025 20.632 9.43301 20.4323 9.43301 20.224Z" fill="#fff"/>
<path d="M18.8595 20.224C18.8595 20.8488 18.6112 21.448 18.1693 21.8898C17.7273 22.3316 17.128 22.5798 16.503 22.5798C15.878 22.5798 15.2786 22.3316 14.8367 21.8898C14.3948 21.448 14.1465 20.8488 14.1465 20.224C14.1465 19.5992 14.3948 19 14.8367 18.5582C15.2786 18.1164 15.878 17.8682 16.503 17.8682C17.128 17.8682 17.7273 18.1164 18.1693 18.5582C18.6112 19 18.8595 19.5992 18.8595 20.224ZM17.2885 20.224C17.2885 20.0157 17.2057 19.816 17.0584 19.6687C16.9111 19.5215 16.7113 19.4387 16.503 19.4387C16.2947 19.4387 16.0949 19.5215 15.9475 19.6687C15.8002 19.816 15.7175 20.0157 15.7175 20.224C15.7175 20.4323 15.8002 20.632 15.9475 20.7793C16.0949 20.9265 16.2947 21.0093 16.503 21.0093C16.7113 21.0093 16.9111 20.9265 17.0584 20.7793C17.2057 20.632 17.2885 20.4323 17.2885 20.224Z" fill="#fff"/>
</svg>
