<svg width="20" height="20" viewBox="0 0 20 20" fill="none" xmlns="http://www.w3.org/2000/svg">
<path d="M15.8074 12.3893C15.3979 11.9629 14.9041 11.735 14.3806 11.735C13.8614 11.735 13.3633 11.9587 12.937 12.3851L11.6031 13.7147C11.4934 13.6556 11.3836 13.6007 11.2781 13.5459C11.1261 13.4699 10.9826 13.3981 10.8602 13.3221C9.61076 12.5286 8.47527 11.4944 7.38622 10.1563C6.85857 9.48935 6.504 8.92794 6.24651 8.35809C6.59264 8.0415 6.91345 7.71226 7.22581 7.39567C7.34401 7.27748 7.4622 7.15506 7.58039 7.03687C8.46683 6.15043 8.46683 5.00229 7.58039 4.11585L6.42802 2.96348C6.29716 2.83262 6.16209 2.69754 6.03545 2.56247C5.78218 2.30076 5.51625 2.03061 5.24188 1.77734C4.83243 1.37211 4.34278 1.15683 3.8278 1.15683C3.31282 1.15683 2.81472 1.37211 2.39261 1.77734C2.38839 1.78156 2.38839 1.78156 2.38417 1.78578L0.948981 3.23363C0.408676 3.77393 0.100533 4.43243 0.0329944 5.19646C-0.068313 6.42903 0.294705 7.57718 0.5733 8.32854C1.25712 10.1732 2.27864 11.8827 3.80247 13.7147C5.65133 15.9224 7.87587 17.6657 10.417 18.894C11.3879 19.3542 12.6837 19.8987 14.1316 19.9915C14.2202 19.9958 14.3131 20 14.3975 20C15.3726 20 16.1915 19.6496 16.8331 18.9531C16.8373 18.9447 16.8458 18.9405 16.85 18.932C17.0695 18.6661 17.3228 18.4255 17.5887 18.168C17.7702 17.9949 17.9559 17.8134 18.1375 17.6235C18.5553 17.1887 18.7748 16.6822 18.7748 16.163C18.7748 15.6396 18.5511 15.1372 18.1248 14.7151L15.8074 12.3893ZM17.3186 16.8341C17.3143 16.8341 17.3143 16.8384 17.3186 16.8341C17.1539 17.0114 16.9851 17.1718 16.8036 17.3491C16.5292 17.6108 16.2506 17.8852 15.9889 18.1933C15.5626 18.6492 15.0602 18.8645 14.4017 18.8645C14.3384 18.8645 14.2709 18.8645 14.2076 18.8603C12.9539 18.7801 11.7889 18.2904 10.9151 17.8725C8.52592 16.7159 6.42802 15.0739 4.68469 12.9929C3.24528 11.258 2.28286 9.65398 1.64547 7.93175C1.2529 6.88069 1.10938 6.06179 1.1727 5.28932C1.21491 4.79545 1.40486 4.386 1.75522 4.03565L3.19463 2.59624C3.40146 2.40207 3.62096 2.29654 3.83624 2.29654C4.10217 2.29654 4.31745 2.45694 4.45253 2.59202C4.45675 2.59624 4.46097 2.60046 4.46519 2.60468C4.72268 2.84528 4.9675 3.09433 5.22499 3.36026C5.35585 3.49534 5.49093 3.63042 5.626 3.76971L6.77837 4.92208C7.22581 5.36952 7.22581 5.7832 6.77837 6.23064C6.65596 6.35305 6.53777 6.47546 6.41535 6.59365C6.06078 6.95667 5.72309 7.29436 5.35585 7.62361C5.34741 7.63205 5.33896 7.63627 5.33474 7.64472C4.97173 8.00773 5.03926 8.36231 5.11524 8.60291C5.11947 8.61558 5.12369 8.62824 5.12791 8.6409C5.42761 9.36694 5.84972 10.0508 6.49133 10.8654L6.49556 10.8697C7.66059 12.3049 8.88894 13.4235 10.2439 14.2803C10.417 14.3901 10.5943 14.4787 10.7631 14.5632C10.9151 14.6391 11.0586 14.7109 11.181 14.7869C11.1979 14.7953 11.2148 14.808 11.2317 14.8164C11.3752 14.8882 11.5103 14.922 11.6496 14.922C11.9999 14.922 12.2194 14.7025 12.2912 14.6307L13.7348 13.1871C13.8783 13.0436 14.1063 12.8705 14.3722 12.8705C14.6339 12.8705 14.8492 13.0351 14.98 13.1786C14.9843 13.1828 14.9843 13.1828 14.9885 13.1871L17.3143 15.5129C17.7491 15.9435 17.7491 16.3867 17.3186 16.8341Z" fill="#FF7C43"/>
<path d="M10.8089 4.75744C11.9148 4.94317 12.9195 5.46659 13.7215 6.2686C14.5235 7.07062 15.0427 8.07525 15.2327 9.18119C15.2791 9.45978 15.5197 9.65395 15.7941 9.65395C15.8279 9.65395 15.8574 9.64973 15.8912 9.64551C16.2035 9.59486 16.4104 9.29938 16.3597 8.98702C16.1318 7.64891 15.4986 6.42901 14.532 5.46237C13.5653 4.49572 12.3454 3.86255 11.0073 3.63461C10.6949 3.58396 10.4037 3.79079 10.3488 4.09894C10.2939 4.40708 10.4965 4.70678 10.8089 4.75744Z" fill="#FF7C43"/>
<path d="M19.9776 8.82242C19.6019 6.61899 18.5635 4.61395 16.9679 3.01836C15.3723 1.42277 13.3673 0.384369 11.1639 0.00868772C10.8557 -0.0461871 10.5645 0.16487 10.5096 0.473013C10.4589 0.785377 10.6658 1.07664 10.9781 1.13151C12.9452 1.46498 14.7392 2.39785 16.1659 3.82037C17.5926 5.24712 18.5213 7.0411 18.8548 9.00815C18.9012 9.28675 19.1418 9.48092 19.4162 9.48092C19.4499 9.48092 19.4795 9.4767 19.5133 9.47248C19.8214 9.42604 20.0325 9.13056 19.9776 8.82242Z" fill="#FF7C43"/>
</svg>
